op_id,P1,P2,P3,P4,P5,P6,P7,P8,P9
20190917,676,9440,2350,0,10260,11106,0,0,0
20191001,0,6013,686,0,11881,0,0,0,0
20191011,1360,7888,1451,0,3942,2077,0,5144,0
20191211,1988,6098,1746,0,12630,0,0,0,0
20200122,290,8767,1234,0,4428,0,0,0,0
20200129,1439,5022,1814,0,6145,1999,6109,0,0
20200221,8071,4056,3800,3460,5245,2156,1925,6119,0
20200317,2127,5646,1550,2381,8008,1522,3282,1844,2209
20200330,1430,4531,843,0,7587,0,0,0,0
20200407,0,8565,1973,0,11713,0,0,0,0
20200416,1765,4918,775,0,6317,0,0,0,0
20200423,1148,2195,320,0,4212,3839,0,0,0
20200427,1076,5708,493,0,0,0,0,0,0
20200504,1150,8908,1895,0,5628,5226,0,0,0
20200622,1056,5603,332,0,6330,0,0,0,0
20201017,0,3959,939,0,1393,0,0,0,0
Average(>0),1813.53846153846,6082.3125,1387.5625,2920.5,7047.93333333333,3989.28571428571,3772,4369,2209
average,1473.5,6082.3125,1387.5625,365.0625,6607.4375,1745.3125,707.25,819.1875,138.0625
